
************* 27-07-2020 11:14:54 *************
27-07-2020 11:14:54-- API Call Success.------API called http://localhost:44762//search/createindex/drewshoes1/PRODUCTION/5/315/315 
***********************************************

************* 27-07-2020 11:14:54 *************
Indexer|5|drewshoes1|5|315|Manually|http://localhost:44762/|2|315|PRODUCTION|bG9jYWxob3N0OjY3NjZ8|0|600000
***********************************************
